('X:\\progetti\\Python\\dadi\\build\\dadi\\PKG-00.pkg',
 {'BINARY': 1,
  'DATA': 1,
  'EXECUTABLE': 1,
  'EXTENSION': 1,
  'PYMODULE': 1,
  'PYSOURCE': 1,
  'PYZ': 0},
 [('PYZ-00.pyz', 'X:\\progetti\\Python\\dadi\\build\\dadi\\PYZ-00.pyz', 'PYZ'),
  ('struct',
   'c:\\users\\mario\\appdata\\local\\programs\\python\\python37-32\\lib\\struct.pyo',
   'PYMODULE'),
  ('pyimod01_os_path',
   'c:\\users\\mario\\appdata\\local\\programs\\python\\python37-32\\lib\\site-packages\\PyInstaller\\loader\\pyimod01_os_path.pyc',
   'PYMODULE'),
  ('pyimod02_archive',
   'c:\\users\\mario\\appdata\\local\\programs\\python\\python37-32\\lib\\site-packages\\PyInstaller\\loader\\pyimod02_archive.pyc',
   'PYMODULE'),
  ('pyimod03_importers',
   'c:\\users\\mario\\appdata\\local\\programs\\python\\python37-32\\lib\\site-packages\\PyInstaller\\loader\\pyimod03_importers.pyc',
   'PYMODULE'),
  ('pyiboot01_bootstrap',
   'c:\\users\\mario\\appdata\\local\\programs\\python\\python37-32\\lib\\site-packages\\PyInstaller\\loader\\pyiboot01_bootstrap.py',
   'PYSOURCE'),
  ('dadi', 'X:\\progetti\\Python\\dadi\\dadi.py', 'PYSOURCE'),
  ('api-ms-win-crt-runtime-l1-1-0.dll',
   'F:\\texlive\\2018\\bin\\win32\\api-ms-win-crt-runtime-l1-1-0.dll',
   'BINARY'),
  ('api-ms-win-crt-locale-l1-1-0.dll',
   'F:\\texlive\\2018\\bin\\win32\\api-ms-win-crt-locale-l1-1-0.dll',
   'BINARY'),
  ('python37.dll',
   'c:\\users\\mario\\appdata\\local\\programs\\python\\python37-32\\python37.dll',
   'BINARY'),
  ('api-ms-win-crt-heap-l1-1-0.dll',
   'F:\\texlive\\2018\\bin\\win32\\api-ms-win-crt-heap-l1-1-0.dll',
   'BINARY'),
  ('VCRUNTIME140.dll',
   'c:\\users\\mario\\appdata\\local\\programs\\python\\python37-32\\VCRUNTIME140.dll',
   'BINARY'),
  ('api-ms-win-crt-stdio-l1-1-0.dll',
   'F:\\texlive\\2018\\bin\\win32\\api-ms-win-crt-stdio-l1-1-0.dll',
   'BINARY'),
  ('api-ms-win-crt-math-l1-1-0.dll',
   'F:\\texlive\\2018\\bin\\win32\\api-ms-win-crt-math-l1-1-0.dll',
   'BINARY'),
  ('ucrtbase.dll', 'F:\\texlive\\2018\\bin\\win32\\ucrtbase.dll', 'BINARY'),
  ('api-ms-win-crt-convert-l1-1-0.dll',
   'F:\\texlive\\2018\\bin\\win32\\api-ms-win-crt-convert-l1-1-0.dll',
   'BINARY'),
  ('api-ms-win-crt-time-l1-1-0.dll',
   'F:\\texlive\\2018\\bin\\win32\\api-ms-win-crt-time-l1-1-0.dll',
   'BINARY'),
  ('api-ms-win-crt-environment-l1-1-0.dll',
   'F:\\texlive\\2018\\bin\\win32\\api-ms-win-crt-environment-l1-1-0.dll',
   'BINARY'),
  ('api-ms-win-crt-process-l1-1-0.dll',
   'F:\\texlive\\2018\\bin\\win32\\api-ms-win-crt-process-l1-1-0.dll',
   'BINARY'),
  ('api-ms-win-crt-string-l1-1-0.dll',
   'F:\\texlive\\2018\\bin\\win32\\api-ms-win-crt-string-l1-1-0.dll',
   'BINARY'),
  ('api-ms-win-crt-filesystem-l1-1-0.dll',
   'F:\\texlive\\2018\\bin\\win32\\api-ms-win-crt-filesystem-l1-1-0.dll',
   'BINARY'),
  ('api-ms-win-core-synch-l1-2-0.dll',
   'F:\\texlive\\2018\\bin\\win32\\api-ms-win-core-synch-l1-2-0.dll',
   'BINARY'),
  ('api-ms-win-core-file-l1-2-0.dll',
   'F:\\texlive\\2018\\bin\\win32\\api-ms-win-core-file-l1-2-0.dll',
   'BINARY'),
  ('api-ms-win-core-timezone-l1-1-0.dll',
   'F:\\texlive\\2018\\bin\\win32\\api-ms-win-core-timezone-l1-1-0.dll',
   'BINARY'),
  ('api-ms-win-core-localization-l1-2-0.dll',
   'F:\\texlive\\2018\\bin\\win32\\api-ms-win-core-localization-l1-2-0.dll',
   'BINARY'),
  ('api-ms-win-core-processthreads-l1-1-1.dll',
   'F:\\texlive\\2018\\bin\\win32\\api-ms-win-core-processthreads-l1-1-1.dll',
   'BINARY'),
  ('api-ms-win-core-file-l2-1-0.dll',
   'F:\\texlive\\2018\\bin\\win32\\api-ms-win-core-file-l2-1-0.dll',
   'BINARY'),
  ('_ssl',
   'c:\\users\\mario\\appdata\\local\\programs\\python\\python37-32\\DLLs\\_ssl.pyd',
   'EXTENSION'),
  ('unicodedata',
   'c:\\users\\mario\\appdata\\local\\programs\\python\\python37-32\\DLLs\\unicodedata.pyd',
   'EXTENSION'),
  ('pyexpat',
   'c:\\users\\mario\\appdata\\local\\programs\\python\\python37-32\\DLLs\\pyexpat.pyd',
   'EXTENSION'),
  ('_hashlib',
   'c:\\users\\mario\\appdata\\local\\programs\\python\\python37-32\\DLLs\\_hashlib.pyd',
   'EXTENSION'),
  ('select',
   'c:\\users\\mario\\appdata\\local\\programs\\python\\python37-32\\DLLs\\select.pyd',
   'EXTENSION'),
  ('_bz2',
   'c:\\users\\mario\\appdata\\local\\programs\\python\\python37-32\\DLLs\\_bz2.pyd',
   'EXTENSION'),
  ('_lzma',
   'c:\\users\\mario\\appdata\\local\\programs\\python\\python37-32\\DLLs\\_lzma.pyd',
   'EXTENSION'),
  ('_socket',
   'c:\\users\\mario\\appdata\\local\\programs\\python\\python37-32\\DLLs\\_socket.pyd',
   'EXTENSION'),
  ('libssl-1_1.dll',
   'c:\\users\\mario\\appdata\\local\\programs\\python\\python37-32\\DLLs\\libssl-1_1.dll',
   'BINARY'),
  ('libcrypto-1_1.dll',
   'c:\\users\\mario\\appdata\\local\\programs\\python\\python37-32\\DLLs\\libcrypto-1_1.dll',
   'BINARY'),
  ('api-ms-win-crt-utility-l1-1-0.dll',
   'F:\\texlive\\2018\\bin\\win32\\api-ms-win-crt-utility-l1-1-0.dll',
   'BINARY'),
  ('base_library.zip',
   'X:\\progetti\\Python\\dadi\\build\\dadi\\base_library.zip',
   'DATA'),
  ('dadi.exe.manifest',
   'X:\\progetti\\Python\\dadi\\build\\dadi\\dadi.exe.manifest',
   'BINARY'),
  ('pyi-windows-manifest-filename dadi.exe.manifest', '', 'OPTION')],
 False,
 False,
 False)
